{
  "project_info": {
    "project_number": "541367396195",
    "firebase_url": "https://projectterm-d3c7b-default-rtdb.firebaseio.com",
    "project_id": "projectterm-d3c7b",
    "storage_bucket": "projectterm-d3c7b.appspot.com"
  },
  "client": [
    {
      "client_info": {
        "mobilesdk_app_id": "1:541367396195:android:08bb2aa6a66bb095775556",
        "android_client_info": {
          "package_name": "com.example.food_menu_app_ui"
        }
      },
      "oauth_client": [
        {
          "client_id": "541367396195-aiqrk845ecedl6gkkvm2vpbp1803kdou.apps.googleusercontent.com",
          "client_type": 1,
          "android_info": {
            "package_name": "com.example.food_menu_app_ui",
            "certificate_hash": "f4104fa7c430a160c38898185d31abd06950c66d"
          }
        },
        {
          "client_id": "541367396195-1q2utfefghifab4nlqf45avusbegtt8q.apps.googleusercontent.com",
          "client_type": 3
        }
      ],
      "api_key": [
        {
          "current_key": "AIzaSyAmePEYiHLgnvKAkyaQ7p99w3TSMXu1TgE"
        }
      ],
      "services": {
        "appinvite_service": {
          "other_platform_oauth_client": [
            {
              "client_id": "541367396195-1q2utfefghifab4nlqf45avusbegtt8q.apps.googleusercontent.com",
              "client_type": 3
            }
          ]
        }
      }
    }
  ],
  "configuration_version": "1"
}